module test_dompet

go 1.15

require (
	github.com/dgrijalva/jwt-go v3.2.0+incompatible
	github.com/gin-gonic/gin v1.7.2
	github.com/joho/godotenv v1.3.0
	github.com/satori/go.uuid v1.2.0
	golang.org/x/crypto v0.0.0-20200622213623-75b288015ac9
	gorm.io/driver/mysql v1.1.1
	gorm.io/gorm v1.21.12
)
